Member Reference Id,Family Member Name,Family Member Relation,Family Member age,Family Member Qualification
6942069,zuker,father,45,PG
6942069,kamker,mother,38,UG
6942069,ivan,brother,25,UG
6942069,iva,sister,23,UG
8874511525,Kayne West,uncle,40,PG
8874511525,Kayne West,uncle,40,PG
8874511525,kadrashin,father,42,UG
