volunteer`s name,work status,contractor`s Name,company`s Name,Address of work,Member`s Name,Father Name,Date of Birth,Member Id,Member`s Gender,Educational Qualification,Member`s Community,Door no,Locality,Taluk,Village,post,city,district,House,Current Work,Payship,is PF available,is ESI available,Member of labour Welfare Board,Date of join in LWB,Place of Work,Wage type,Salary,Subcription Type,Ration card,Name in Bank account,Bank Name,IFSC number,Account Number
Nirmal,contract,Google,,"no 12 moutain view , gagak",mark zugerberg,zuker,1979-08-19,6942069,male,8th,BC,69,punda theru,ladekabal taluk,mutta sunni village,lavade,gangsta,chegalpatu,owned,Construction,no,yes,yes,yes,2013-12-31,Playstation,yearly,125423,yes,6556989899889.0,mark zugerberg,Yes Bank,4654949494645348,6846546546466565
Dark_humar_69,permanent,,oggg,"23 company theru , company place ,compan",Kim Kardashin,Fucking asshole,1999-10-20,8874511525,female,SSLC,OC,56,main road,aalankottai,periyap,ottaod,nithiyanath city,poli mavatam,owned,Street Vendor,no,no,no,no,Not join lwb yet,Place ella,monthly,1215414,no,,Las vegas,vagina Bank,5486464846464648,694585454684946
